{
  "package": {
    "dependencies": {
      "@types/compression": "^1.7.0",
      "@types/cors": "^2.8.6",
      "@types/express": "^4.17.6",
      "@types/helmet": "0.0.47",
      "@types/morgan": "^1.9.1",
      "@typescript-eslint/eslint-plugin": "^3.3.0",
      "@typescript-eslint/parser": "^3.3.0",
      "compression": "^1.7.4",
      "cors": "^2.8.5",
      "dotenv": "^8.2.0",
      "eslint": "^7.2.0",
      "express": "^4.17.1",
      "helmet": "^3.23.1",
      "morgan": "^1.10.0",
      "nodemon": "^2.0.4",
      "prettier": "^2.0.5",
      "ts-node": "^8.10.2",
      "typescript": "^3.9.5"
    },
    "scripts": {
      "start": "npm run dev",
      "dev": "NODE_ENV=development nodemon --watch 'src' --exec 'ts-node' src/index.ts",
      "prod": "npm run build && node ./dist/index.js",
      "build": "rm -rf dist && tsc --sourceMap -p ./",
      "linter": "eslint --ext .ts  --fix src/",
      "prettier": "prettier --write src/"
    }
  }
}